%YAML 1.1
%TAG !u! tag:unity3d.com,2011:
--- !u!1 &4701741705657890458
GameObject:
  m_ObjectHideFlags: 0
  m_CorrespondingSourceObject: {fileID: 0}
  m_PrefabInstance: {fileID: 0}
  m_PrefabAsset: {fileID: 0}
  serializedVersion: 6
  m_Component:
  - component: {fileID: 4833903457906417696}
  m_Layer: 0
  m_Name: Piedras
  m_TagString: Untagged
  m_Icon: {fileID: 0}
  m_NavMeshLayer: 0
  m_StaticEditorFlags: 0
  m_IsActive: 1
--- !u!4 &4833903457906417696
Transform:
  m_ObjectHideFlags: 0
  m_CorrespondingSourceObject: {fileID: 0}
  m_PrefabInstance: {fileID: 0}
  m_PrefabAsset: {fileID: 0}
  m_GameObject: {fileID: 4701741705657890458}
  m_LocalRotation: {x: 0, y: 0, z: 0, w: 1}
  m_LocalPosition: {x: 36.67, y: -4.93, z: -13.082939}
  m_LocalScale: {x: 1, y: 1, z: 1}
  m_ConstrainProportionsScale: 0
  m_Children:
  - {fileID: 6858987409111323864}
  - {fileID: 8252219142928810348}
  m_Father: {fileID: 0}
  m_RootOrder: 0
  m_LocalEulerAnglesHint: {x: 0, y: 0, z: 0}
--- !u!1001 &6858987409111191128
PrefabInstance:
  m_ObjectHideFlags: 0
  serializedVersion: 2
  m_Modification:
    m_TransformParent: {fileID: 4833903457906417696}
    m_Modifications:
    - target: {fileID: 100000, guid: 19497d68b37d2594fb3e269601d333be, type: 3}
      propertyPath: m_Name
      value: piedra 1
      objectReference: {fileID: 0}
    - target: {fileID: 400000, guid: 19497d68b37d2594fb3e269601d333be, type: 3}
      propertyPath: m_RootOrder
      value: 0
      objectReference: {fileID: 0}
    - target: {fileID: 400000, guid: 19497d68b37d2594fb3e269601d333be, type: 3}
      propertyPath: m_LocalPosition.x
      value: -48.4
      objectReference: {fileID: 0}
    - target: {fileID: 400000, guid: 19497d68b37d2594fb3e269601d333be, type: 3}
      propertyPath: m_LocalPosition.y
      value: 10.53
      objectReference: {fileID: 0}
    - target: {fileID: 400000, guid: 19497d68b37d2594fb3e269601d333be, type: 3}
      propertyPath: m_LocalPosition.z
      value: -15.125572
      objectReference: {fileID: 0}
    - target: {fileID: 400000, guid: 19497d68b37d2594fb3e269601d333be, type: 3}
      propertyPath: m_LocalRotation.w
      value: 1
      objectReference: {fileID: 0}
    - target: {fileID: 400000, guid: 19497d68b37d2594fb3e269601d333be, type: 3}
      propertyPath: m_LocalRotation.x
      value: 0.0000000218557
      objectReference: {fileID: 0}
    - target: {fileID: 400000, guid: 19497d68b37d2594fb3e269601d333be, type: 3}
      propertyPath: m_LocalRotation.y
      value: -0
      objectReference: {fileID: 0}
    - target: {fileID: 400000, guid: 19497d68b37d2594fb3e269601d333be, type: 3}
      propertyPath: m_LocalRotation.z
      value: -0
      objectReference: {fileID: 0}
    - target: {fileID: 400000, guid: 19497d68b37d2594fb3e269601d333be, type: 3}
      propertyPath: m_LocalEulerAnglesHint.x
      value: 0
      objectReference: {fileID: 0}
    - target: {fileID: 400000, guid: 19497d68b37d2594fb3e269601d333be, type: 3}
      propertyPath: m_LocalEulerAnglesHint.y
      value: 0
      objectReference: {fileID: 0}
    - target: {fileID: 400000, guid: 19497d68b37d2594fb3e269601d333be, type: 3}
      propertyPath: m_LocalEulerAnglesHint.z
      value: 0
      objectReference: {fileID: 0}
    - target: {fileID: 2300000, guid: 19497d68b37d2594fb3e269601d333be, type: 3}
      propertyPath: m_Materials.Array.data[0]
      value: 
      objectReference: {fileID: 2100000, guid: 423c28e1f68f8ee44aecde9bc08dde83, type: 2}
    m_RemovedComponents: []
  m_SourcePrefab: {fileID: 100100000, guid: 19497d68b37d2594fb3e269601d333be, type: 3}
--- !u!4 &6858987409111323864 stripped
Transform:
  m_CorrespondingSourceObject: {fileID: 400000, guid: 19497d68b37d2594fb3e269601d333be,
    type: 3}
  m_PrefabInstance: {fileID: 6858987409111191128}
  m_PrefabAsset: {fileID: 0}
--- !u!1001 &8252219142928948204
PrefabInstance:
  m_ObjectHideFlags: 0
  serializedVersion: 2
  m_Modification:
    m_TransformParent: {fileID: 4833903457906417696}
    m_Modifications:
    - target: {fileID: 100000, guid: 19497d68b37d2594fb3e269601d333be, type: 3}
      propertyPath: m_Name
      value: piedra 2
      objectReference: {fileID: 0}
    - target: {fileID: 400000, guid: 19497d68b37d2594fb3e269601d333be, type: 3}
      propertyPath: m_RootOrder
      value: 1
      objectReference: {fileID: 0}
    - target: {fileID: 400000, guid: 19497d68b37d2594fb3e269601d333be, type: 3}
      propertyPath: m_LocalScale.x
      value: 0.58457
      objectReference: {fileID: 0}
    - target: {fileID: 400000, guid: 19497d68b37d2594fb3e269601d333be, type: 3}
      propertyPath: m_LocalScale.y
      value: 0.58457
      objectReference: {fileID: 0}
    - target: {fileID: 400000, guid: 19497d68b37d2594fb3e269601d333be, type: 3}
      propertyPath: m_LocalScale.z
      value: 0.58457
      objectReference: {fileID: 0}
    - target: {fileID: 400000, guid: 19497d68b37d2594fb3e269601d333be, type: 3}
      propertyPath: m_LocalPosition.x
      value: -48.325
      objectReference: {fileID: 0}
    - target: {fileID: 400000, guid: 19497d68b37d2594fb3e269601d333be, type: 3}
      propertyPath: m_LocalPosition.y
      value: 10.517847
      objectReference: {fileID: 0}
    - target: {fileID: 400000, guid: 19497d68b37d2594fb3e269601d333be, type: 3}
      propertyPath: m_LocalPosition.z
      value: -15.871061
      objectReference: {fileID: 0}
    - target: {fileID: 400000, guid: 19497d68b37d2594fb3e269601d333be, type: 3}
      propertyPath: m_LocalRotation.w
      value: 1
      objectReference: {fileID: 0}
    - target: {fileID: 400000, guid: 19497d68b37d2594fb3e269601d333be, type: 3}
      propertyPath: m_LocalRotation.x
      value: 0.0000000218557
      objectReference: {fileID: 0}
    - target: {fileID: 400000, guid: 19497d68b37d2594fb3e269601d333be, type: 3}
      propertyPath: m_LocalRotation.y
      value: -0
      objectReference: {fileID: 0}
    - target: {fileID: 400000, guid: 19497d68b37d2594fb3e269601d333be, type: 3}
      propertyPath: m_LocalRotation.z
      value: -0
      objectReference: {fileID: 0}
    - target: {fileID: 400000, guid: 19497d68b37d2594fb3e269601d333be, type: 3}
      propertyPath: m_LocalEulerAnglesHint.x
      value: 0
      objectReference: {fileID: 0}
    - target: {fileID: 400000, guid: 19497d68b37d2594fb3e269601d333be, type: 3}
      propertyPath: m_LocalEulerAnglesHint.y
      value: 0
      objectReference: {fileID: 0}
    - target: {fileID: 400000, guid: 19497d68b37d2594fb3e269601d333be, type: 3}
      propertyPath: m_LocalEulerAnglesHint.z
      value: 0
      objectReference: {fileID: 0}
    - target: {fileID: 2300000, guid: 19497d68b37d2594fb3e269601d333be, type: 3}
      propertyPath: m_Materials.Array.data[0]
      value: 
      objectReference: {fileID: 2100000, guid: 423c28e1f68f8ee44aecde9bc08dde83, type: 2}
    m_RemovedComponents: []
  m_SourcePrefab: {fileID: 100100000, guid: 19497d68b37d2594fb3e269601d333be, type: 3}
--- !u!4 &8252219142928810348 stripped
Transform:
  m_CorrespondingSourceObject: {fileID: 400000, guid: 19497d68b37d2594fb3e269601d333be,
    type: 3}
  m_PrefabInstance: {fileID: 8252219142928948204}
  m_PrefabAsset: {fileID: 0}
